sim/transcript
# Reading D:/questasim_b_install/tcl/vsim/pref.tcl
# //  Questa Sim-64
# //  Version 10.7c win64 Aug 18 2018
# //
# //  Copyright 1991-2018 Mentor Graphics Corporation
# //  All Rights Reserved.
# //
# //  QuestaSim and its associated documentation contain trade
# //  secrets and commercial or financial information that are the property of
# //  Mentor Graphics Corporation and are privileged, confidential,
# //  and exempt from disclosure under the Freedom of Information Act,
# //  5 U.S.C. Section 552. Furthermore, this information
# //  is prohibited from disclosure under the Trade Secrets Act,
# //  18 U.S.C. Section 1905.
# //
# vsim -gui top "+UVM_TESTNAME=mux_test" -voptargs="+acc" -do "add wave -r /*; run -all" 
# Start time: 17:39:25 on Dec 25,2025
# ** Note: (vsim-8009) Loading existing optimized design _opt
# Loading sv_std.std
# Loading work.mux_if(fast)
# Loading mtiUvm.uvm_pkg
# Loading work.mux_pkg(fast)
# Loading work.top_sv_unit(fast)
# Loading work.top(fast)
# Loading work.mux_if(fast)
# Loading work.mux(fast)
# Loading mtiUvm.questa_uvm_pkg(fast)
# Loading D:/questasim_b_install/uvm-1.1d\win64\uvm_dpi.dll
# add wave -r /*
#  run -all
# ----------------------------------------------------------------
# UVM-1.1d
# (C) 2007-2013 Mentor Graphics Corporation
# (C) 2007-2013 Cadence Design Systems, Inc.
# (C) 2006-2013 Synopsys, Inc.
# (C) 2011-2013 Cypress Semiconductor Corp.
# ----------------------------------------------------------------
# 
#   ***********       IMPORTANT RELEASE NOTES         ************
# 
#   You are using a version of the UVM library that has been compiled
#   with `UVM_NO_DEPRECATED undefined.
#   See http://www.eda.org/svdb/view.php?id=3313 for more details.
# 
#   You are using a version of the UVM library that has been compiled
#   with `UVM_OBJECT_MUST_HAVE_CONSTRUCTOR undefined.
#   See http://www.eda.org/svdb/view.php?id=3770 for more details.
# 
#       (Specify +UVM_NO_RELNOTES to turn off this notice)
# 
# UVM_INFO verilog_src/questa_uvm_pkg-1.2/src/questa_uvm_pkg.sv(215) @ 0: reporter [Questa UVM] QUESTA_UVM-1.2.3
# UVM_INFO verilog_src/questa_uvm_pkg-1.2/src/questa_uvm_pkg.sv(216) @ 0: reporter [Questa UVM]  questa_uvm::init(+struct)
# UVM_INFO @ 0: reporter [RNTST] Running test mux_test...
# UVM_INFO @ 0: reporter [UVMTOP] UVM testbench topology:
# ------------------------------------------------------------------
# Name                       Type                        Size  Value
# ------------------------------------------------------------------
# uvm_test_top               mux_test                    -     @471 
#   env                      mux_env                     -     @478 
#     agent                  mux_agent                   -     @485 
#       driver               mux_driver                  -     @609 
#         rsp_port           uvm_analysis_port           -     @624 
#         seq_item_port      uvm_seq_item_pull_port      -     @616 
#       golden               mux_golden                  -     @647 
#         item_golden_port   uvm_analysis_port           -     @654 
#       monitor              mux_monitor                 -     @632 
#         item_send_port     uvm_analysis_port           -     @639 
#       seqr                 uvm_sequencer               -     @662 
#         rsp_export         uvm_analysis_export         -     @669 
#         seq_item_export    uvm_seq_item_pull_imp       -     @763 
#         arbitration_queue  array                       0     -    
#         lock_queue         array                       0     -    
#         num_last_reqs      integral                    32    'd1  
#         num_last_rsps      integral                    32    'd1  
#     cov                    mux_coverage                -     @593 
#       analysis_imp         uvm_analysis_imp            -     @600 
#     scoreboard             mux_scoreboard              -     @492 
#       item_golden_imp      uvm_tlm_analysis_fifo #(T)  -     @546 
#         analysis_export    uvm_analysis_imp            -     @585 
#         get_ap             uvm_analysis_port           -     @577 
#         get_peek_export    uvm_get_peek_imp            -     @561 
#         put_ap             uvm_analysis_port           -     @569 
#         put_export         uvm_put_imp                 -     @553 
#       item_got_imp         uvm_tlm_analysis_fifo #(T)  -     @499 
#         analysis_export    uvm_analysis_imp            -     @538 
#         get_ap             uvm_analysis_port           -     @530 
#         get_peek_export    uvm_get_peek_imp            -     @514 
#         put_ap             uvm_analysis_port           -     @522 
#         put_export         uvm_put_imp                 -     @506 
# ------------------------------------------------------------------
# 
# UVM_INFO ../uvc/env/mux_monitor.sv(31) @ 5000: uvm_test_top.env.agent.monitor [MON] Sent: sel=0 a=0 b=0 c=0 d=0 y=0
# UVM_INFO ../uvc/env/mux_scoreboard.sv(28) @ 5000: uvm_test_top.env.scoreboard [SB]  Passed | sel = 0, y = 0 >< sel_gol = 0, y_gol = 0
# UVM_INFO ../uvc/env/mux_driver.sv(29) @ 5000: uvm_test_top.env.agent.driver [DRV] a:0  b:0 c:10 d:6 sel:0 y:0
# UVM_INFO ../uvc/env/mux_monitor.sv(31) @ 15000: uvm_test_top.env.agent.monitor [MON] Sent: sel=0 a=0 b=0 c=a d=6 y=0
# UVM_INFO ../uvc/env/mux_scoreboard.sv(28) @ 15000: uvm_test_top.env.scoreboard [SB]  Passed | sel = 0, y = 0 >< sel_gol = 0, y_gol = 0
# UVM_INFO ../uvc/env/mux_driver.sv(29) @ 15000: uvm_test_top.env.agent.driver [DRV] a:9  b:7 c:5 d:8 sel:1 y:0
# UVM_INFO ../uvc/env/mux_monitor.sv(31) @ 25000: uvm_test_top.env.agent.monitor [MON] Sent: sel=1 a=9 b=7 c=5 d=8 y=7
# UVM_INFO ../uvc/env/mux_scoreboard.sv(28) @ 25000: uvm_test_top.env.scoreboard [SB]  Passed | sel = 1, y = 7 >< sel_gol = 1, y_gol = 7
# UVM_INFO ../uvc/env/mux_driver.sv(29) @ 25000: uvm_test_top.env.agent.driver [DRV] a:12  b:14 c:14 d:0 sel:2 y:0
# UVM_INFO ../uvc/env/mux_monitor.sv(31) @ 35000: uvm_test_top.env.agent.monitor [MON] Sent: sel=2 a=c b=e c=e d=0 y=e
# UVM_INFO ../uvc/env/mux_scoreboard.sv(28) @ 35000: uvm_test_top.env.scoreboard [SB]  Passed | sel = 2, y = e >< sel_gol = 2, y_gol = e
# UVM_INFO ../uvc/env/mux_driver.sv(29) @ 35000: uvm_test_top.env.agent.driver [DRV] a:3  b:6 c:4 d:0 sel:3 y:0
# UVM_INFO ../uvc/env/mux_monitor.sv(31) @ 45000: uvm_test_top.env.agent.monitor [MON] Sent: sel=3 a=3 b=6 c=4 d=0 y=0
# UVM_INFO ../uvc/env/mux_scoreboard.sv(28) @ 45000: uvm_test_top.env.scoreboard [SB]  Passed | sel = 3, y = 0 >< sel_gol = 3, y_gol = 0
# UVM_INFO ../uvc/env/mux_driver.sv(29) @ 45000: uvm_test_top.env.agent.driver [DRV] a:6  b:3 c:12 d:15 sel:1 y:0
# UVM_INFO ../uvc/env/mux_monitor.sv(31) @ 55000: uvm_test_top.env.agent.monitor [MON] Sent: sel=1 a=6 b=3 c=c d=f y=3
# UVM_INFO ../uvc/env/mux_scoreboard.sv(28) @ 55000: uvm_test_top.env.scoreboard [SB]  Passed | sel = 1, y = 3 >< sel_gol = 1, y_gol = 3
# UVM_INFO ../uvc/env/mux_driver.sv(29) @ 55000: uvm_test_top.env.agent.driver [DRV] a:15  b:4 c:9 d:12 sel:2 y:0
# UVM_INFO ../uvc/env/mux_monitor.sv(31) @ 65000: uvm_test_top.env.agent.monitor [MON] Sent: sel=2 a=f b=4 c=9 d=c y=9
# UVM_INFO ../uvc/env/mux_scoreboard.sv(28) @ 65000: uvm_test_top.env.scoreboard [SB]  Passed | sel = 2, y = 9 >< sel_gol = 2, y_gol = 9
# UVM_INFO ../uvc/env/mux_driver.sv(29) @ 65000: uvm_test_top.env.agent.driver [DRV] a:15  b:5 c:14 d:1 sel:3 y:0
# UVM_INFO ../uvc/env/mux_monitor.sv(31) @ 75000: uvm_test_top.env.agent.monitor [MON] Sent: sel=3 a=f b=5 c=e d=1 y=1
# UVM_INFO ../uvc/env/mux_scoreboard.sv(28) @ 75000: uvm_test_top.env.scoreboard [SB]  Passed | sel = 3, y = 1 >< sel_gol = 3, y_gol = 1
# UVM_INFO ../uvc/env/mux_driver.sv(29) @ 75000: uvm_test_top.env.agent.driver [DRV] a:0  b:6 c:0 d:2 sel:1 y:0
# UVM_INFO ../uvc/env/mux_monitor.sv(31) @ 85000: uvm_test_top.env.agent.monitor [MON] Sent: sel=1 a=0 b=6 c=0 d=2 y=6
# UVM_INFO ../uvc/env/mux_scoreboard.sv(28) @ 85000: uvm_test_top.env.scoreboard [SB]  Passed | sel = 1, y = 6 >< sel_gol = 1, y_gol = 6
# UVM_INFO ../uvc/env/mux_driver.sv(29) @ 85000: uvm_test_top.env.agent.driver [DRV] a:4  b:5 c:10 d:0 sel:2 y:0
# UVM_INFO ../uvc/env/mux_monitor.sv(31) @ 95000: uvm_test_top.env.agent.monitor [MON] Sent: sel=2 a=4 b=5 c=a d=0 y=a
# UVM_INFO ../uvc/env/mux_scoreboard.sv(28) @ 95000: uvm_test_top.env.scoreboard [SB]  Passed | sel = 2, y = a >< sel_gol = 2, y_gol = a
# UVM_INFO ../uvc/env/mux_driver.sv(29) @ 95000: uvm_test_top.env.agent.driver [DRV] a:14  b:7 c:0 d:8 sel:2 y:0
# UVM_INFO ../uvc/env/mux_monitor.sv(31) @ 105000: uvm_test_top.env.agent.monitor [MON] Sent: sel=2 a=e b=7 c=0 d=8 y=0
# UVM_INFO ../uvc/env/mux_scoreboard.sv(28) @ 105000: uvm_test_top.env.scoreboard [SB]  Passed | sel = 2, y = 0 >< sel_gol = 2, y_gol = 0
# UVM_INFO ../uvc/env/mux_driver.sv(29) @ 105000: uvm_test_top.env.agent.driver [DRV] a:1  b:0 c:4 d:0 sel:0 y:0
# UVM_INFO ../uvc/env/mux_monitor.sv(31) @ 115000: uvm_test_top.env.agent.monitor [MON] Sent: sel=0 a=1 b=0 c=4 d=0 y=1
# UVM_INFO ../uvc/env/mux_scoreboard.sv(28) @ 115000: uvm_test_top.env.scoreboard [SB]  Passed | sel = 0, y = 1 >< sel_gol = 0, y_gol = 1
# UVM_INFO ../uvc/env/mux_driver.sv(29) @ 115000: uvm_test_top.env.agent.driver [DRV] a:12  b:8 c:12 d:0 sel:2 y:0
# UVM_INFO ../uvc/env/mux_monitor.sv(31) @ 125000: uvm_test_top.env.agent.monitor [MON] Sent: sel=2 a=c b=8 c=c d=0 y=c
# UVM_INFO ../uvc/env/mux_scoreboard.sv(28) @ 125000: uvm_test_top.env.scoreboard [SB]  Passed | sel = 2, y = c >< sel_gol = 2, y_gol = c
# UVM_INFO ../uvc/env/mux_driver.sv(29) @ 125000: uvm_test_top.env.agent.driver [DRV] a:7  b:6 c:14 d:3 sel:2 y:0
# UVM_INFO ../uvc/env/mux_monitor.sv(31) @ 135000: uvm_test_top.env.agent.monitor [MON] Sent: sel=2 a=7 b=6 c=e d=3 y=e
# UVM_INFO ../uvc/env/mux_scoreboard.sv(28) @ 135000: uvm_test_top.env.scoreboard [SB]  Passed | sel = 2, y = e >< sel_gol = 2, y_gol = e
# UVM_INFO ../uvc/env/mux_driver.sv(29) @ 135000: uvm_test_top.env.agent.driver [DRV] a:13  b:8 c:4 d:7 sel:1 y:0
# UVM_INFO ../uvc/env/mux_monitor.sv(31) @ 145000: uvm_test_top.env.agent.monitor [MON] Sent: sel=1 a=d b=8 c=4 d=7 y=8
# UVM_INFO ../uvc/env/mux_scoreboard.sv(28) @ 145000: uvm_test_top.env.scoreboard [SB]  Passed | sel = 1, y = 8 >< sel_gol = 1, y_gol = 8
# UVM_INFO ../uvc/env/mux_driver.sv(29) @ 145000: uvm_test_top.env.agent.driver [DRV] a:12  b:3 c:7 d:0 sel:2 y:0
# UVM_INFO ../uvc/env/mux_monitor.sv(31) @ 155000: uvm_test_top.env.agent.monitor [MON] Sent: sel=2 a=c b=3 c=7 d=0 y=7
# UVM_INFO ../uvc/env/mux_scoreboard.sv(28) @ 155000: uvm_test_top.env.scoreboard [SB]  Passed | sel = 2, y = 7 >< sel_gol = 2, y_gol = 7
# UVM_INFO ../uvc/env/mux_driver.sv(29) @ 155000: uvm_test_top.env.agent.driver [DRV] a:0  b:12 c:9 d:10 sel:0 y:0
# UVM_INFO ../uvc/env/mux_monitor.sv(31) @ 165000: uvm_test_top.env.agent.monitor [MON] Sent: sel=0 a=0 b=c c=9 d=a y=0
# UVM_INFO ../uvc/env/mux_scoreboard.sv(28) @ 165000: uvm_test_top.env.scoreboard [SB]  Passed | sel = 0, y = 0 >< sel_gol = 0, y_gol = 0
# UVM_INFO ../uvc/env/mux_driver.sv(29) @ 165000: uvm_test_top.env.agent.driver [DRV] a:9  b:14 c:12 d:15 sel:2 y:0
# UVM_INFO ../uvc/env/mux_monitor.sv(31) @ 175000: uvm_test_top.env.agent.monitor [MON] Sent: sel=2 a=9 b=e c=c d=f y=c
# UVM_INFO ../uvc/env/mux_scoreboard.sv(28) @ 175000: uvm_test_top.env.scoreboard [SB]  Passed | sel = 2, y = c >< sel_gol = 2, y_gol = c
# UVM_INFO ../uvc/env/mux_driver.sv(29) @ 175000: uvm_test_top.env.agent.driver [DRV] a:15  b:0 c:3 d:8 sel:3 y:0
# UVM_INFO ../uvc/env/mux_monitor.sv(31) @ 185000: uvm_test_top.env.agent.monitor [MON] Sent: sel=3 a=f b=0 c=3 d=8 y=8
# UVM_INFO ../uvc/env/mux_scoreboard.sv(28) @ 185000: uvm_test_top.env.scoreboard [SB]  Passed | sel = 3, y = 8 >< sel_gol = 3, y_gol = 8
# UVM_INFO ../uvc/env/mux_driver.sv(29) @ 185000: uvm_test_top.env.agent.driver [DRV] a:4  b:0 c:7 d:2 sel:1 y:0
# UVM_INFO ../uvc/env/mux_monitor.sv(31) @ 195000: uvm_test_top.env.agent.monitor [MON] Sent: sel=1 a=4 b=0 c=7 d=2 y=0
# UVM_INFO ../uvc/env/mux_scoreboard.sv(28) @ 195000: uvm_test_top.env.scoreboard [SB]  Passed | sel = 1, y = 0 >< sel_gol = 1, y_gol = 0
# UVM_INFO ../uvc/env/mux_driver.sv(29) @ 195000: uvm_test_top.env.agent.driver [DRV] a:1  b:14 c:12 d:7 sel:3 y:0
# UVM_INFO ../uvc/env/mux_monitor.sv(31) @ 205000: uvm_test_top.env.agent.monitor [MON] Sent: sel=3 a=1 b=e c=c d=7 y=7
# UVM_INFO ../uvc/env/mux_scoreboard.sv(28) @ 205000: uvm_test_top.env.scoreboard [SB]  Passed | sel = 3, y = 7 >< sel_gol = 3, y_gol = 7
# UVM_INFO ../uvc/env/mux_driver.sv(29) @ 205000: uvm_test_top.env.agent.driver [DRV] a:8  b:11 c:3 d:0 sel:2 y:0
# UVM_INFO ../uvc/env/mux_monitor.sv(31) @ 215000: uvm_test_top.env.agent.monitor [MON] Sent: sel=2 a=8 b=b c=3 d=0 y=3
# UVM_INFO ../uvc/env/mux_scoreboard.sv(28) @ 215000: uvm_test_top.env.scoreboard [SB]  Passed | sel = 2, y = 3 >< sel_gol = 2, y_gol = 3
# UVM_INFO ../uvc/env/mux_driver.sv(29) @ 215000: uvm_test_top.env.agent.driver [DRV] a:11  b:6 c:8 d:1 sel:3 y:0
# UVM_INFO ../uvc/env/mux_monitor.sv(31) @ 225000: uvm_test_top.env.agent.monitor [MON] Sent: sel=3 a=b b=6 c=8 d=1 y=1
# UVM_INFO ../uvc/env/mux_scoreboard.sv(28) @ 225000: uvm_test_top.env.scoreboard [SB]  Passed | sel = 3, y = 1 >< sel_gol = 3, y_gol = 1
# UVM_INFO ../uvc/env/mux_driver.sv(29) @ 225000: uvm_test_top.env.agent.driver [DRV] a:13  b:5 c:5 d:13 sel:0 y:0
# UVM_INFO ../uvc/env/mux_monitor.sv(31) @ 235000: uvm_test_top.env.agent.monitor [MON] Sent: sel=0 a=d b=5 c=5 d=d y=d
# UVM_INFO ../uvc/env/mux_scoreboard.sv(28) @ 235000: uvm_test_top.env.scoreboard [SB]  Passed | sel = 0, y = d >< sel_gol = 0, y_gol = d
# UVM_INFO ../uvc/env/mux_driver.sv(29) @ 235000: uvm_test_top.env.agent.driver [DRV] a:8  b:7 c:14 d:6 sel:2 y:0
# UVM_INFO ../uvc/env/mux_monitor.sv(31) @ 245000: uvm_test_top.env.agent.monitor [MON] Sent: sel=2 a=8 b=7 c=e d=6 y=e
# UVM_INFO ../uvc/env/mux_scoreboard.sv(28) @ 245000: uvm_test_top.env.scoreboard [SB]  Passed | sel = 2, y = e >< sel_gol = 2, y_gol = e
# UVM_INFO ../uvc/env/mux_driver.sv(29) @ 245000: uvm_test_top.env.agent.driver [DRV] a:7  b:12 c:13 d:8 sel:0 y:0
# UVM_INFO ../uvc/env/mux_monitor.sv(31) @ 255000: uvm_test_top.env.agent.monitor [MON] Sent: sel=0 a=7 b=c c=d d=8 y=7
# UVM_INFO ../uvc/env/mux_scoreboard.sv(28) @ 255000: uvm_test_top.env.scoreboard [SB]  Passed | sel = 0, y = 7 >< sel_gol = 0, y_gol = 7
# UVM_INFO ../uvc/env/mux_driver.sv(29) @ 255000: uvm_test_top.env.agent.driver [DRV] a:9  b:1 c:9 d:2 sel:0 y:0
# UVM_INFO ../uvc/env/mux_monitor.sv(31) @ 265000: uvm_test_top.env.agent.monitor [MON] Sent: sel=0 a=9 b=1 c=9 d=2 y=9
# UVM_INFO ../uvc/env/mux_scoreboard.sv(28) @ 265000: uvm_test_top.env.scoreboard [SB]  Passed | sel = 0, y = 9 >< sel_gol = 0, y_gol = 9
# UVM_INFO ../uvc/env/mux_driver.sv(29) @ 265000: uvm_test_top.env.agent.driver [DRV] a:8  b:3 c:9 d:1 sel:0 y:0
# UVM_INFO ../uvc/env/mux_monitor.sv(31) @ 275000: uvm_test_top.env.agent.monitor [MON] Sent: sel=0 a=8 b=3 c=9 d=1 y=8
# UVM_INFO ../uvc/env/mux_scoreboard.sv(28) @ 275000: uvm_test_top.env.scoreboard [SB]  Passed | sel = 0, y = 8 >< sel_gol = 0, y_gol = 8
# UVM_INFO ../uvc/env/mux_driver.sv(29) @ 275000: uvm_test_top.env.agent.driver [DRV] a:8  b:7 c:9 d:15 sel:2 y:0
# UVM_INFO ../uvc/env/mux_monitor.sv(31) @ 285000: uvm_test_top.env.agent.monitor [MON] Sent: sel=2 a=8 b=7 c=9 d=f y=9
# UVM_INFO ../uvc/env/mux_scoreboard.sv(28) @ 285000: uvm_test_top.env.scoreboard [SB]  Passed | sel = 2, y = 9 >< sel_gol = 2, y_gol = 9
# UVM_INFO ../uvc/env/mux_driver.sv(29) @ 285000: uvm_test_top.env.agent.driver [DRV] a:3  b:12 c:3 d:10 sel:0 y:0
# UVM_INFO ../uvc/env/mux_monitor.sv(31) @ 295000: uvm_test_top.env.agent.monitor [MON] Sent: sel=0 a=3 b=c c=3 d=a y=3
# UVM_INFO ../uvc/env/mux_scoreboard.sv(28) @ 295000: uvm_test_top.env.scoreboard [SB]  Passed | sel = 0, y = 3 >< sel_gol = 0, y_gol = 3
# UVM_INFO ../uvc/env/mux_driver.sv(29) @ 295000: uvm_test_top.env.agent.driver [DRV] a:12  b:12 c:13 d:2 sel:1 y:0
# UVM_INFO ../uvc/env/mux_monitor.sv(31) @ 305000: uvm_test_top.env.agent.monitor [MON] Sent: sel=1 a=c b=c c=d d=2 y=c
# UVM_INFO ../uvc/env/mux_scoreboard.sv(28) @ 305000: uvm_test_top.env.scoreboard [SB]  Passed | sel = 1, y = c >< sel_gol = 1, y_gol = c
# UVM_INFO ../uvc/env/mux_driver.sv(29) @ 305000: uvm_test_top.env.agent.driver [DRV] a:11  b:1 c:13 d:4 sel:3 y:0
# UVM_INFO ../uvc/env/mux_monitor.sv(31) @ 315000: uvm_test_top.env.agent.monitor [MON] Sent: sel=3 a=b b=1 c=d d=4 y=4
# UVM_INFO ../uvc/env/mux_scoreboard.sv(28) @ 315000: uvm_test_top.env.scoreboard [SB]  Passed | sel = 3, y = 4 >< sel_gol = 3, y_gol = 4
# UVM_INFO ../uvc/env/mux_driver.sv(29) @ 315000: uvm_test_top.env.agent.driver [DRV] a:13  b:8 c:11 d:0 sel:2 y:0
# UVM_INFO ../uvc/env/mux_monitor.sv(31) @ 325000: uvm_test_top.env.agent.monitor [MON] Sent: sel=2 a=d b=8 c=b d=0 y=b
# UVM_INFO ../uvc/env/mux_scoreboard.sv(28) @ 325000: uvm_test_top.env.scoreboard [SB]  Passed | sel = 2, y = b >< sel_gol = 2, y_gol = b
# UVM_INFO ../uvc/env/mux_driver.sv(29) @ 325000: uvm_test_top.env.agent.driver [DRV] a:7  b:7 c:11 d:1 sel:2 y:0
# UVM_INFO ../uvc/env/mux_monitor.sv(31) @ 335000: uvm_test_top.env.agent.monitor [MON] Sent: sel=2 a=7 b=7 c=b d=1 y=b
# UVM_INFO ../uvc/env/mux_scoreboard.sv(28) @ 335000: uvm_test_top.env.scoreboard [SB]  Passed | sel = 2, y = b >< sel_gol = 2, y_gol = b
# UVM_INFO ../uvc/env/mux_driver.sv(29) @ 335000: uvm_test_top.env.agent.driver [DRV] a:12  b:13 c:13 d:6 sel:0 y:0
# UVM_INFO ../uvc/env/mux_monitor.sv(31) @ 345000: uvm_test_top.env.agent.monitor [MON] Sent: sel=0 a=c b=d c=d d=6 y=c
# UVM_INFO ../uvc/env/mux_scoreboard.sv(28) @ 345000: uvm_test_top.env.scoreboard [SB]  Passed | sel = 0, y = c >< sel_gol = 0, y_gol = c
# UVM_INFO ../uvc/env/mux_driver.sv(29) @ 345000: uvm_test_top.env.agent.driver [DRV] a:1  b:2 c:11 d:7 sel:3 y:0
# UVM_INFO ../uvc/env/mux_monitor.sv(31) @ 355000: uvm_test_top.env.agent.monitor [MON] Sent: sel=3 a=1 b=2 c=b d=7 y=7
# UVM_INFO ../uvc/env/mux_scoreboard.sv(28) @ 355000: uvm_test_top.env.scoreboard [SB]  Passed | sel = 3, y = 7 >< sel_gol = 3, y_gol = 7
# UVM_INFO ../uvc/env/mux_driver.sv(29) @ 355000: uvm_test_top.env.agent.driver [DRV] a:3  b:0 c:14 d:13 sel:3 y:0
# UVM_INFO ../uvc/env/mux_monitor.sv(31) @ 365000: uvm_test_top.env.agent.monitor [MON] Sent: sel=3 a=3 b=0 c=e d=d y=d
# UVM_INFO ../uvc/env/mux_scoreboard.sv(28) @ 365000: uvm_test_top.env.scoreboard [SB]  Passed | sel = 3, y = d >< sel_gol = 3, y_gol = d
# UVM_INFO ../uvc/env/mux_driver.sv(29) @ 365000: uvm_test_top.env.agent.driver [DRV] a:12  b:12 c:5 d:11 sel:0 y:0
# UVM_INFO ../uvc/env/mux_monitor.sv(31) @ 375000: uvm_test_top.env.agent.monitor [MON] Sent: sel=0 a=c b=c c=5 d=b y=c
# UVM_INFO ../uvc/env/mux_scoreboard.sv(28) @ 375000: uvm_test_top.env.scoreboard [SB]  Passed | sel = 0, y = c >< sel_gol = 0, y_gol = c
# UVM_INFO ../uvc/env/mux_driver.sv(29) @ 375000: uvm_test_top.env.agent.driver [DRV] a:13  b:14 c:8 d:12 sel:3 y:0
# UVM_INFO ../uvc/env/mux_monitor.sv(31) @ 385000: uvm_test_top.env.agent.monitor [MON] Sent: sel=3 a=d b=e c=8 d=c y=c
# UVM_INFO ../uvc/env/mux_scoreboard.sv(28) @ 385000: uvm_test_top.env.scoreboard [SB]  Passed | sel = 3, y = c >< sel_gol = 3, y_gol = c
# UVM_INFO ../uvc/env/mux_driver.sv(29) @ 385000: uvm_test_top.env.agent.driver [DRV] a:8  b:14 c:0 d:10 sel:0 y:0
# UVM_INFO ../uvc/env/mux_monitor.sv(31) @ 395000: uvm_test_top.env.agent.monitor [MON] Sent: sel=0 a=8 b=e c=0 d=a y=8
# UVM_INFO ../uvc/env/mux_scoreboard.sv(28) @ 395000: uvm_test_top.env.scoreboard [SB]  Passed | sel = 0, y = 8 >< sel_gol = 0, y_gol = 8
# UVM_INFO ../uvc/env/mux_driver.sv(29) @ 395000: uvm_test_top.env.agent.driver [DRV] a:14  b:2 c:0 d:15 sel:3 y:0
# UVM_INFO ../uvc/env/mux_monitor.sv(31) @ 405000: uvm_test_top.env.agent.monitor [MON] Sent: sel=3 a=e b=2 c=0 d=f y=f
# UVM_INFO ../uvc/env/mux_scoreboard.sv(28) @ 405000: uvm_test_top.env.scoreboard [SB]  Passed | sel = 3, y = f >< sel_gol = 3, y_gol = f
# UVM_INFO ../uvc/env/mux_driver.sv(29) @ 405000: uvm_test_top.env.agent.driver [DRV] a:7  b:15 c:1 d:15 sel:2 y:0
# UVM_INFO ../uvc/env/mux_monitor.sv(31) @ 415000: uvm_test_top.env.agent.monitor [MON] Sent: sel=2 a=7 b=f c=1 d=f y=1
# UVM_INFO ../uvc/env/mux_scoreboard.sv(28) @ 415000: uvm_test_top.env.scoreboard [SB]  Passed | sel = 2, y = 1 >< sel_gol = 2, y_gol = 1
# UVM_INFO ../uvc/env/mux_driver.sv(29) @ 415000: uvm_test_top.env.agent.driver [DRV] a:5  b:3 c:8 d:6 sel:1 y:0
# UVM_INFO ../uvc/env/mux_monitor.sv(31) @ 425000: uvm_test_top.env.agent.monitor [MON] Sent: sel=1 a=5 b=3 c=8 d=6 y=3
# UVM_INFO ../uvc/env/mux_scoreboard.sv(28) @ 425000: uvm_test_top.env.scoreboard [SB]  Passed | sel = 1, y = 3 >< sel_gol = 1, y_gol = 3
# UVM_INFO ../uvc/env/mux_driver.sv(29) @ 425000: uvm_test_top.env.agent.driver [DRV] a:11  b:2 c:2 d:4 sel:1 y:0
# UVM_INFO ../uvc/env/mux_monitor.sv(31) @ 435000: uvm_test_top.env.agent.monitor [MON] Sent: sel=1 a=b b=2 c=2 d=4 y=2
# UVM_INFO ../uvc/env/mux_scoreboard.sv(28) @ 435000: uvm_test_top.env.scoreboard [SB]  Passed | sel = 1, y = 2 >< sel_gol = 1, y_gol = 2
# UVM_INFO ../uvc/env/mux_driver.sv(29) @ 435000: uvm_test_top.env.agent.driver [DRV] a:2  b:9 c:5 d:1 sel:1 y:0
# UVM_INFO ../uvc/env/mux_monitor.sv(31) @ 445000: uvm_test_top.env.agent.monitor [MON] Sent: sel=1 a=2 b=9 c=5 d=1 y=9
# UVM_INFO ../uvc/env/mux_scoreboard.sv(28) @ 445000: uvm_test_top.env.scoreboard [SB]  Passed | sel = 1, y = 9 >< sel_gol = 1, y_gol = 9
# UVM_INFO ../uvc/env/mux_driver.sv(29) @ 445000: uvm_test_top.env.agent.driver [DRV] a:11  b:13 c:12 d:1 sel:3 y:0
# UVM_INFO ../uvc/env/mux_monitor.sv(31) @ 455000: uvm_test_top.env.agent.monitor [MON] Sent: sel=3 a=b b=d c=c d=1 y=1
# UVM_INFO ../uvc/env/mux_scoreboard.sv(28) @ 455000: uvm_test_top.env.scoreboard [SB]  Passed | sel = 3, y = 1 >< sel_gol = 3, y_gol = 1
# UVM_INFO ../uvc/env/mux_driver.sv(29) @ 455000: uvm_test_top.env.agent.driver [DRV] a:0  b:5 c:3 d:1 sel:2 y:0
# UVM_INFO ../uvc/env/mux_monitor.sv(31) @ 465000: uvm_test_top.env.agent.monitor [MON] Sent: sel=2 a=0 b=5 c=3 d=1 y=3
# UVM_INFO ../uvc/env/mux_scoreboard.sv(28) @ 465000: uvm_test_top.env.scoreboard [SB]  Passed | sel = 2, y = 3 >< sel_gol = 2, y_gol = 3
# UVM_INFO ../uvc/env/mux_driver.sv(29) @ 465000: uvm_test_top.env.agent.driver [DRV] a:14  b:11 c:3 d:5 sel:3 y:0
# UVM_INFO ../uvc/env/mux_monitor.sv(31) @ 475000: uvm_test_top.env.agent.monitor [MON] Sent: sel=3 a=e b=b c=3 d=5 y=5
# UVM_INFO ../uvc/env/mux_scoreboard.sv(28) @ 475000: uvm_test_top.env.scoreboard [SB]  Passed | sel = 3, y = 5 >< sel_gol = 3, y_gol = 5
# UVM_INFO ../uvc/env/mux_driver.sv(29) @ 475000: uvm_test_top.env.agent.driver [DRV] a:5  b:8 c:9 d:7 sel:3 y:0
# UVM_INFO ../uvc/env/mux_monitor.sv(31) @ 485000: uvm_test_top.env.agent.monitor [MON] Sent: sel=3 a=5 b=8 c=9 d=7 y=7
# UVM_INFO ../uvc/env/mux_scoreboard.sv(28) @ 485000: uvm_test_top.env.scoreboard [SB]  Passed | sel = 3, y = 7 >< sel_gol = 3, y_gol = 7
# UVM_INFO ../uvc/env/mux_driver.sv(29) @ 485000: uvm_test_top.env.agent.driver [DRV] a:1  b:5 c:7 d:3 sel:0 y:0
# UVM_INFO ../uvc/env/mux_monitor.sv(31) @ 495000: uvm_test_top.env.agent.monitor [MON] Sent: sel=0 a=1 b=5 c=7 d=3 y=1
# UVM_INFO ../uvc/env/mux_scoreboard.sv(28) @ 495000: uvm_test_top.env.scoreboard [SB]  Passed | sel = 0, y = 1 >< sel_gol = 0, y_gol = 1
# UVM_INFO ../uvc/env/mux_driver.sv(29) @ 495000: uvm_test_top.env.agent.driver [DRV] a:1  b:2 c:8 d:12 sel:1 y:0
# ================ =================
# UVM_INFO ../uvc/env/mux_monitor.sv(31) @ 505000: uvm_test_top.env.agent.monitor [MON] Sent: sel=1 a=1 b=2 c=8 d=c y=2
# UVM_INFO ../uvc/env/mux_scoreboard.sv(28) @ 505000: uvm_test_top.env.scoreboard [SB]  Passed | sel = 1, y = 2 >< sel_gol = 1, y_gol = 2
# UVM_INFO ../uvc/env/mux_driver.sv(29) @ 505000: uvm_test_top.env.agent.driver [DRV] a:4  b:1 c:10 d:1 sel:0 y:0
# UVM_INFO ../uvc/env/mux_monitor.sv(31) @ 515000: uvm_test_top.env.agent.monitor [MON] Sent: sel=0 a=4 b=1 c=a d=1 y=4
# UVM_INFO ../uvc/env/mux_scoreboard.sv(28) @ 515000: uvm_test_top.env.scoreboard [SB]  Passed | sel = 0, y = 4 >< sel_gol = 0, y_gol = 4
# UVM_INFO ../uvc/env/mux_driver.sv(29) @ 515000: uvm_test_top.env.agent.driver [DRV] a:13  b:15 c:3 d:4 sel:0 y:0
